{
    "name": "PlayerControlMap",
    "maps": [
        {
            "name": "Gameplay",
            "id": "e28e9775-65d5-426e-8459-87413d3ef5b7",
            "actions": [
                {
                    "name": "Horizontal",
                    "type": "Button",
                    "id": "0cdad1ca-9d83-44e6-8215-07e6cdfac4b7",
                    "expectedControlType": "Button",
                    "processors": "",
                    "interactions": "",
                    "initialStateCheck": false
                },
                {
                    "name": "Vertical",
                    "type": "Button",
                    "id": "f2d41210-350b-4820-b00d-bd407e0fb7d2",
                    "expectedControlType": "Button",
                    "processors": "",
                    "interactions": "",
                    "initialStateCheck": false
                },
                {
                    "name": "Fire1",
                    "type": "Button",
                    "id": "8a8e0651-8582-47c1-bec6-3db7d18224d2",
                    "expectedControlType": "Button",
                    "processors": "",
                    "interactions": "",
                    "initialStateCheck": false
                },
                {
                    "name": "Fire2",
                    "type": "Button",
                    "id": "aa57fbcc-8011-4ae3-ae89-b23039e71288",
                    "expectedControlType": "Button",
                    "processors": "",
                    "interactions": "",
                    "initialStateCheck": false
                }
            ],
            "bindings": [
                {
                    "name": "1D Axis",
                    "id": "d3d5b3a0-e0f3-40ae-80a2-e50d614f4609",
                    "path": "1DAxis",
                    "interactions": "",
                    "processors": "",
                    "groups": "",
                    "action": "Horizontal",
                    "isComposite": true,
                    "isPartOfComposite": false
                },
                {
                    "name": "negative",
                    "id": "da83f898-3119-45a0-911d-c1552238fcd6",
                    "path": "<Keyboard>/a",
                    "interactions": "",
                    "processors": "",
                    "groups": "",
                    "action": "Horizontal",
                    "isComposite": false,
                    "isPartOfComposite": true
                },
                {
                    "name": "positive",
                    "id": "25c4a8d2-a250-4c46-8c26-75fb7db6f780",
                    "path": "<Keyboard>/d",
                    "interactions": "",
                    "processors": "",
                    "groups": "",
                    "action": "Horizontal",
                    "isComposite": false,
                    "isPartOfComposite": true
                },
                {
                    "name": "1D Axis",
                    "id": "faed49c9-97eb-42ba-87bd-fd4b5076b9d6",
                    "path": "1DAxis",
                    "interactions": "",
                    "processors": "",
                    "groups": "",
                    "action": "Vertical",
                    "isComposite": true,
                    "isPartOfComposite": false
                },
                {
                    "name": "negative",
                    "id": "c15ebcf6-c6e7-4faf-9f85-f4b8c0a182e0",
                    "path": "<Keyboard>/s",
                    "interactions": "",
                    "processors": "",
                    "groups": "",
                    "action": "Vertical",
                    "isComposite": false,
                    "isPartOfComposite": true
                },
                {
                    "name": "positive",
                    "id": "3ca6ab22-6c4e-4a6c-a95a-4b94c45580ef",
                    "path": "<Keyboard>/w",
                    "interactions": "",
                    "processors": "",
                    "groups": "",
                    "action": "Vertical",
                    "isComposite": false,
                    "isPartOfComposite": true
                },
                {
                    "name": "",
                    "id": "c8a51ef6-348f-461f-b66d-1f9a09948431",
                    "path": "<Keyboard>/leftCtrl",
                    "interactions": "",
                    "processors": "",
                    "groups": "",
                    "action": "Fire1",
                    "isComposite": false,
                    "isPartOfComposite": false
                },
                {
                    "name": "",
                    "id": "3f8746e6-c445-4cdf-bf96-148bdcc0d15d",
                    "path": "<Mouse>/leftButton",
                    "interactions": "",
                    "processors": "",
                    "groups": "",
                    "action": "Fire1",
                    "isComposite": false,
                    "isPartOfComposite": false
                },
                {
                    "name": "",
                    "id": "b47d7c38-6500-4d21-a11f-77dccb0f985c",
                    "path": "<Keyboard>/leftAlt",
                    "interactions": "",
                    "processors": "",
                    "groups": "",
                    "action": "Fire2",
                    "isComposite": false,
                    "isPartOfComposite": false
                },
                {
                    "name": "",
                    "id": "6beaf643-97b8-41f4-92f0-a08214e7e83b",
                    "path": "<Mouse>/rightButton",
                    "interactions": "",
                    "processors": "",
                    "groups": "",
                    "action": "Fire2",
                    "isComposite": false,
                    "isPartOfComposite": false
                }
            ]
        }
    ],
    "controlSchemes": []
}